<?xml version="1.0" encoding="UTF-8" standalone="no"?>
<!-- Created with Inkscape (http://www.inkscape.org/) -->

<svg
   xmlns:dc="http://purl.org/dc/elements/1.1/"
   xmlns:cc="http://creativecommons.org/ns#"
   xmlns:rdf="http://www.w3.org/1999/02/22-rdf-syntax-ns#"
   xmlns:svg="http://www.w3.org/2000/svg"
   xmlns="http://www.w3.org/2000/svg"
   xmlns:xlink="http://www.w3.org/1999/xlink"
   xmlns:sodipodi="http://sodipodi.sourceforge.net/DTD/sodipodi-0.dtd"
   xmlns:inkscape="http://www.inkscape.org/namespaces/inkscape"
   width="210mm"
   height="297mm"
   viewBox="0 0 210 297"
   version="1.1"
   id="svg8"
   inkscape:version="0.92.1 r"
   sodipodi:docname="Black_wasp.svg"
   inkscape:export-filename="/home/zou/Documents/Projets_sur_images/BlockZones/Black_wasp.png"
   inkscape:export-xdpi="300"
   inkscape:export-ydpi="300">
  <defs
     id="defs2">
    <linearGradient
       id="linearGradient4924"
       inkscape:collect="always">
      <stop
         id="stop4920"
         offset="0"
         style="stop-color:#990000;stop-opacity:1" />
      <stop
         id="stop4922"
         offset="1"
         style="stop-color:#990000;stop-opacity:0;" />
    </linearGradient>
    <linearGradient
       inkscape:collect="always"
       id="linearGradient4906">
      <stop
         style="stop-color:#000000;stop-opacity:1;"
         offset="0"
         id="stop4902" />
      <stop
         style="stop-color:#000000;stop-opacity:0;"
         offset="1"
         id="stop4904" />
    </linearGradient>
    <linearGradient
       inkscape:collect="always"
       id="linearGradient4898">
      <stop
         style="stop-color:#000000;stop-opacity:1;"
         offset="0"
         id="stop4894" />
      <stop
         style="stop-color:#000000;stop-opacity:0;"
         offset="1"
         id="stop4896" />
    </linearGradient>
    <linearGradient
       inkscape:collect="always"
       id="linearGradient4871">
      <stop
         style="stop-color:#000000;stop-opacity:1;"
         offset="0"
         id="stop4867" />
      <stop
         style="stop-color:#000000;stop-opacity:0;"
         offset="1"
         id="stop4869" />
    </linearGradient>
    <linearGradient
       inkscape:collect="always"
       id="linearGradient4827">
      <stop
         style="stop-color:#990000;stop-opacity:1;"
         offset="0"
         id="stop4823" />
      <stop
         style="stop-color:#990000;stop-opacity:0;"
         offset="1"
         id="stop4825" />
    </linearGradient>
    <linearGradient
       inkscape:collect="always"
       id="linearGradient4815">
      <stop
         style="stop-color:#ffde81;stop-opacity:1;"
         offset="0"
         id="stop4811" />
      <stop
         style="stop-color:#ffde81;stop-opacity:0;"
         offset="1"
         id="stop4813" />
    </linearGradient>
    <linearGradient
       inkscape:collect="always"
       id="linearGradient4776">
      <stop
         style="stop-color:#990000;stop-opacity:1;"
         offset="0"
         id="stop4772" />
      <stop
         style="stop-color:#990000;stop-opacity:0;"
         offset="1"
         id="stop4774" />
    </linearGradient>
    <linearGradient
       inkscape:collect="always"
       id="linearGradient4748">
      <stop
         style="stop-color:#000000;stop-opacity:1;"
         offset="0"
         id="stop4744" />
      <stop
         style="stop-color:#000000;stop-opacity:0;"
         offset="1"
         id="stop4746" />
    </linearGradient>
    <linearGradient
       inkscape:collect="always"
       xlink:href="#linearGradient4748"
       id="linearGradient4750"
       x1="332.49072"
       y1="433.87376"
       x2="412.92223"
       y2="433.87376"
       gradientUnits="userSpaceOnUse" />
    <linearGradient
       inkscape:collect="always"
       xlink:href="#linearGradient4776"
       id="linearGradient4778"
       x1="424.64288"
       y1="482.71432"
       x2="341.24048"
       y2="400.44855"
       gradientUnits="userSpaceOnUse" />
    <linearGradient
       inkscape:collect="always"
       xlink:href="#linearGradient4815"
       id="linearGradient4817"
       x1="90.62619"
       y1="106.24326"
       x2="114.89249"
       y2="125.91409"
       gradientUnits="userSpaceOnUse" />
    <linearGradient
       inkscape:collect="always"
       xlink:href="#linearGradient4827"
       id="linearGradient4829"
       x1="424.64288"
       y1="482.71432"
       x2="353.42712"
       y2="439.27774"
       gradientUnits="userSpaceOnUse" />
    <linearGradient
       inkscape:collect="always"
       xlink:href="#linearGradient4871"
       id="linearGradient4873"
       x1="410.79935"
       y1="488.77814"
       x2="437.31586"
       y2="526.40631"
       gradientUnits="userSpaceOnUse" />
    <linearGradient
       inkscape:collect="always"
       xlink:href="#linearGradient4776"
       id="linearGradient4890"
       x1="385.02582"
       y1="550.35071"
       x2="406.87427"
       y2="571.51141"
       gradientUnits="userSpaceOnUse" />
    <linearGradient
       inkscape:collect="always"
       xlink:href="#linearGradient4898"
       id="linearGradient4900"
       x1="395.17856"
       y1="564.30542"
       x2="419.77124"
       y2="540.99225"
       gradientUnits="userSpaceOnUse" />
    <linearGradient
       inkscape:collect="always"
       xlink:href="#linearGradient4906"
       id="linearGradient4908"
       x1="449.86481"
       y1="463.46683"
       x2="492.45282"
       y2="509.53827"
       gradientUnits="userSpaceOnUse" />
    <linearGradient
       inkscape:collect="always"
       xlink:href="#linearGradient4924"
       id="linearGradient4926"
       gradientUnits="userSpaceOnUse"
       x1="468.97198"
       y1="479.45526"
       x2="471.64297"
       y2="485.93338" />
    <linearGradient
       inkscape:collect="always"
       xlink:href="#linearGradient4815"
       id="linearGradient4972"
       gradientUnits="userSpaceOnUse"
       x1="472.62512"
       y1="488.52267"
       x2="468.90018"
       y2="482.33551" />
  </defs>
  <sodipodi:namedview
     id="base"
     pagecolor="#ffffff"
     bordercolor="#666666"
     borderopacity="1.0"
     inkscape:pageopacity="0.0"
     inkscape:pageshadow="2"
     inkscape:zoom="2.8"
     inkscape:cx="394.92496"
     inkscape:cy="645.95745"
     inkscape:document-units="mm"
     inkscape:current-layer="layer1"
     showgrid="false"
     inkscape:window-width="1920"
     inkscape:window-height="1020"
     inkscape:window-x="0"
     inkscape:window-y="31"
     inkscape:window-maximized="1" />
  <metadata
     id="metadata5">
    <rdf:RDF>
      <cc:Work
         rdf:about="">
        <dc:format>image/svg+xml</dc:format>
        <dc:type
           rdf:resource="http://purl.org/dc/dcmitype/StillImage" />
        <dc:title></dc:title>
      </cc:Work>
    </rdf:RDF>
  </metadata>
  <g
     inkscape:label="Calque 1"
     inkscape:groupmode="layer"
     id="layer1"
     style="display:inline"
     sodipodi:insensitive="true" />
  <g
     inkscape:groupmode="layer"
     id="layer7"
     inkscape:label="Pattes"
     style="display:inline"
     sodipodi:insensitive="true">
    <g
       id="g223">
      <path
         sodipodi:nodetypes="cccccccccc"
         inkscape:connector-curvature="0"
         id="path212"
         d="m 116.83019,131.7272 c 0.17015,-1.1693 -0.19788,-2.33861 0.7684,-3.50791 l 1.70384,4.54358 1.46999,0.66818 1.36975,-0.30068 -1.33635,0.30068 -1.43657,-0.7684 c -0.37971,-1.76332 -0.71957,-3.50388 -1.70384,-5.61266 -2.11257,1.59843 -1.07995,3.33362 -1.36976,5.0113 z"
         style="fill:none;fill-rule:evenodd;stroke:#000000;stroke-width:0.26458332px;stroke-linecap:butt;stroke-linejoin:miter;stroke-opacity:1" />
      <path
         sodipodi:nodetypes="cccccccccccccc"
         inkscape:connector-curvature="0"
         id="path214"
         d="m 112.88796,135.03466 -0.36749,-2.40542 c -0.0513,-0.44112 -0.0169,-0.7964 0.63476,-0.53454 l 3.34087,2.77292 1.46999,2.53906 1.57021,0.33409 0.73499,-0.30068 -0.7684,0.30068 -1.46999,-0.40091 -1.5368,-2.83973 -3.14041,-3.0736 c -1.47607,-0.19235 -1.39156,0.50886 -1.43658,1.13589 l 0.30068,2.87315 z"
         style="fill:none;fill-rule:evenodd;stroke:#000000;stroke-width:0.26458332px;stroke-linecap:butt;stroke-linejoin:miter;stroke-opacity:1" />
      <path
         sodipodi:nodetypes="cccccccccccccc"
         inkscape:connector-curvature="0"
         id="path218"
         d="m 110.78322,136.17056 -0.7684,0.60136 -1.57021,-0.26727 c -0.33187,1.4192 -0.34545,2.90205 -0.23386,4.40994 l 1.26953,1.33635 3.74177,0.53454 1.1359,0.16704 c 0.61153,-0.0235 0.9088,-0.43977 1.1693,-0.90203 -0.30405,0.71034 -0.72077,0.97004 -1.20271,0.96885 l -5.11153,-0.30068 -1.83748,-1.60361 c -0.24794,-1.08 -0.0465,-2.75924 0.23386,-4.54359 0.1546,-0.5329 0.47387,-0.92171 1.33635,-0.83521 0.61249,0.22534 1.22499,0.46803 1.83748,0.43431 z"
         style="fill:none;fill-rule:evenodd;stroke:#000000;stroke-width:0.26458332px;stroke-linecap:butt;stroke-linejoin:miter;stroke-opacity:1" />
    </g>
    <path
       style="fill:#000000;fill-opacity:1;stroke:none;stroke-width:0.12626907px;stroke-linecap:butt;stroke-linejoin:miter;stroke-opacity:1"
       d="m 415.50092,539.0226 c -1.79302,-0.11355 -2.49023,-0.20338 -2.65165,-0.34164 -2.12302,-1.81841 -6.31556,-5.48437 -6.42424,-5.61736 -0.29415,-0.35992 -0.46,-2.6712 -0.38734,-5.39796 0.10651,-3.99734 0.98009,-10.91148 1.53356,-12.13773 0.59,-1.30718 1.65196,-1.94972 3.21904,-1.94768 0.6424,8.4e-4 1.15001,0.11414 2.24744,0.50165 1.43857,0.50796 3.08307,0.96277 3.74442,1.03558 0.35705,0.0393 0.3498,0.0509 -0.39047,0.62424 l -0.75427,0.58419 -3.05672,-0.51823 c -2.40599,-0.40791 -3.07781,-0.4841 -3.15582,-0.35788 -0.0545,0.0882 -0.22178,0.79718 -0.37173,1.57554 -0.74677,3.87635 -1.00569,8.02898 -0.78735,12.62754 l 0.15047,3.16931 1.60193,1.68928 c 0.88106,0.9291 2.02808,2.13888 2.54894,2.6884 l 0.94702,0.99913 2.84106,0.38592 c 4.46966,0.60714 4.17835,0.75639 -0.85429,0.4377 z"
       id="path4849"
       inkscape:connector-curvature="0"
       transform="scale(0.26458333)" />
    <path
       style="fill:#000000;fill-opacity:1;stroke:none;stroke-width:0.12626907px;stroke-linecap:butt;stroke-linejoin:miter;stroke-opacity:1"
       d="m 424.5627,510.71002 c 0,-0.12748 -0.22967,-2.4177 -0.51038,-5.08937 -0.43093,-4.10143 -0.492,-5.0096 -0.39232,-5.8341 0.22574,-1.86724 0.86346,-2.47589 2.71125,-2.58766 0.56788,-0.0344 1.21798,-0.0135 1.44468,0.0464 0.30112,0.0795 1.48353,1.15781 4.38785,4.00138 2.18662,2.14087 3.97567,3.94479 3.97567,4.00872 0,0.0639 -0.0496,0.11624 -0.11012,0.11624 -0.0606,0 -1.89305,-1.4819 -4.07218,-3.29312 -2.17913,-1.81122 -4.10411,-3.35026 -4.27773,-3.4201 -0.17362,-0.0698 -0.59978,-0.17275 -0.94702,-0.22868 -0.83824,-0.13501 -1.42508,0.0663 -1.79471,0.61555 -0.43466,0.64592 -0.37095,1.71559 0.39563,6.64202 0.75558,4.85576 0.79276,4.29015 -0.32634,4.96322 -0.44823,0.26958 -0.48428,0.27401 -0.48428,0.0595 z"
       id="path4851"
       inkscape:connector-curvature="0"
       transform="scale(0.26458333)" />
    <path
       style="fill:#000000;fill-opacity:1;stroke:none;stroke-width:0.12626907px;stroke-linecap:butt;stroke-linejoin:miter;stroke-opacity:1"
       d="m 440.27396,496.43822 c -0.005,-0.81607 -0.0319,-3.01793 -0.0596,-4.89302 -0.0478,-3.23334 -0.0358,-3.46139 0.23309,-4.41942 0.34843,-1.24152 0.84784,-2.32628 1.54077,-3.34666 0.62387,-0.9187 2.39277,-2.70962 2.53209,-2.56363 0.1594,0.16704 1.35867,3.0956 2.08746,5.09749 0.66005,1.81305 1.95784,6.12192 2.14174,7.11091 0.0681,0.3663 0.0513,0.47648 -0.0666,0.43715 -0.0868,-0.0289 -1.00779,-2.32326 -2.04677,-5.09855 -1.03898,-2.77528 -1.93042,-5.08872 -1.98098,-5.14096 -0.10909,-0.11272 -1.19743,1.29608 -1.82922,2.36783 -0.51747,0.87784 -1.14155,2.66924 -1.34164,3.8512 -0.0764,0.45142 -0.19024,2.32651 -0.25294,4.16688 l -0.114,3.34613 -0.32938,0.28411 c -0.18116,0.15626 -0.36883,0.28415 -0.41705,0.2842 -0.0482,6e-5 -0.0918,-0.66759 -0.0969,-1.48366 z"
       id="path4853"
       inkscape:connector-curvature="0"
       transform="scale(0.26458333)" />
  </g>
  <g
     inkscape:groupmode="layer"
     id="layer6"
     inkscape:label="Queue"
     sodipodi:insensitive="true"
     style="display:inline">
    <path
       style="fill:none;fill-rule:evenodd;stroke:#000000;stroke-width:0.26458332px;stroke-linecap:butt;stroke-linejoin:miter;stroke-opacity:1"
       d="m 102.89877,141.91685 c -0.15689,1.64713 0.15075,2.79425 2.27179,3.37428 0.86369,0.35507 2.2729,0.53539 3.17382,2.6727 0.2971,0.9742 -0.30274,1.91813 3.30747,2.03792 -1.00544,0.76603 -2.0489,1.21985 -3.50792,1.30295 -3.04611,-0.26344 -4.89168,-1.50913 -5.98015,-3.37428 -0.80551,-2.18901 -0.0229,-4.04546 0.73499,-6.01357 z"
       id="path209"
       inkscape:connector-curvature="0"
       sodipodi:nodetypes="ccccccc" />
    <g
       id="g4880">
      <path
         sodipodi:nodetypes="cccc"
         inkscape:connector-curvature="0"
         id="path4877"
         d="m 101.97089,144.86458 c -0.0218,0.58302 -0.0391,1.34002 1.2048,1.96075 0.63783,0.29407 1.08668,2.2126 1.38197,2.48047 1.10858,1.53471 2.35682,1.67288 3.58627,1.9989"
         style="fill:none;fill-rule:evenodd;stroke:#000000;stroke-width:0.26458332px;stroke-linecap:butt;stroke-linejoin:miter;stroke-opacity:1" />
    </g>
    <path
       style="fill:url(#linearGradient4890);fill-opacity:1;stroke:none;stroke-width:0.08928572px;stroke-linecap:butt;stroke-linejoin:miter;stroke-opacity:1"
       d="m 398.59561,569.04055 c -1.20183,-0.47053 -2.85741,-1.28987 -3.97956,-1.96946 -2.82999,-1.7139 -5.74524,-4.61252 -7.54987,-7.50682 -0.68365,-1.09644 -1.27908,-3.15188 -1.52254,-5.25584 -0.15094,-1.30435 -0.20916,-2.63393 -0.11534,-2.63393 0.0467,0 0.21517,0.23091 0.37445,0.51314 0.15928,0.28223 0.63755,0.85477 1.06282,1.27232 0.72028,0.70719 1.16642,1.01868 2.85787,1.99533 0.98661,0.56968 1.81294,1.96074 3.21703,5.41564 0.44904,1.10491 0.97245,2.33036 1.16313,2.72321 0.4106,0.84596 1.59811,2.37496 2.66992,3.4377 0.65148,0.64597 2.1591,1.85714 2.73744,2.19915 0.0941,0.0556 0.15037,0.12315 0.12514,0.15005 -0.0252,0.0269 -0.49346,-0.12632 -1.04049,-0.34049 z"
       id="path4882"
       inkscape:connector-curvature="0"
       transform="scale(0.26458333)" />
    <path
       style="fill:url(#linearGradient4900);fill-opacity:1;stroke:none;stroke-width:0.08928572px;stroke-linecap:butt;stroke-linejoin:miter;stroke-opacity:1"
       d="m 406.69455,570.78427 c -2.57488,-0.67546 -3.71893,-1.05927 -5.06262,-1.69841 -2.19363,-1.04343 -3.7886,-2.32837 -5.43143,-4.37565 -0.97141,-1.21056 -1.06756,-1.39052 -2.0643,-3.86386 -1.71987,-4.26774 -2.59658,-5.67562 -4.01351,-6.44516 -1.13875,-0.61846 -2.0815,-1.30524 -2.69819,-1.96558 -1.0533,-1.12786 -1.4475,-2.20127 -1.4927,-4.06468 -0.0247,-1.01671 5.4e-4,-1.23258 0.28311,-2.42477 0.3479,-1.46783 1.80619,-5.8924 1.95844,-5.94209 0.0632,-0.0206 0.11983,0.22346 0.15794,0.68043 0.0741,0.88853 0.39777,2.1823 0.75736,3.02734 1.08692,2.55421 3.39832,4.37311 7.11119,5.59597 1.85305,0.61031 4.19439,1.45706 4.95518,1.79204 3.19557,1.40703 5.41397,3.53939 7.089,6.81405 0.7148,1.39743 0.81773,1.70909 1.07336,3.25001 0.12768,0.76967 0.32624,1.6586 0.44123,1.97541 0.92235,2.54103 3.33869,3.62004 9.38766,4.19203 l 1.16071,0.10975 -0.71428,0.47013 c -0.39286,0.25858 -1.30119,0.76291 -2.01852,1.12075 -2.12723,1.06117 -4.03201,1.6606 -6.3912,2.0113 -2.23808,0.3327 -2.23133,0.33309 -4.48843,-0.25901 z"
       id="path4892"
       inkscape:connector-curvature="0"
       transform="scale(0.26458333)" />
  </g>
  <g
     inkscape:groupmode="layer"
     id="layer3"
     inkscape:label="Aile Inf"
     style="display:inline"
     sodipodi:insensitive="true">
    <g
       id="g195">
      <path
         sodipodi:nodetypes="ccccc"
         inkscape:connector-curvature="0"
         id="path153"
         d="m 113.79,126.88294 c -5.4382,-3.61209 -13.855727,-9.23267 -20.279076,-10.65737 0.209797,7.9542 4.003033,10.04459 9.087166,10.02261 2.90961,0.47283 5.4521,-0.0508 8.92012,1.9377 z"
         style="fill:none;fill-rule:evenodd;stroke:#000000;stroke-width:0.26458332px;stroke-linecap:butt;stroke-linejoin:miter;stroke-opacity:1" />
      <path
         sodipodi:nodetypes="cccc"
         inkscape:connector-curvature="0"
         id="path155"
         d="m 96.784976,117.39487 c -3.430578,-0.10965 -0.847534,3.5488 0,4.87768 1.253626,1.05396 2.636463,2.11455 4.176084,2.53906 3.01354,0.71048 8.21705,0.46462 11.39237,2.90655"
         style="fill:none;fill-rule:evenodd;stroke:#000000;stroke-width:0.26458332px;stroke-linecap:butt;stroke-linejoin:miter;stroke-opacity:1" />
    </g>
    <path
       style="fill:#000000;fill-opacity:1;stroke:none;stroke-width:0.08928572px;stroke-linecap:butt;stroke-linejoin:miter;stroke-opacity:1"
       d="m 421.08952,483.62472 c -0.35373,-0.24777 -3.40871,-1.7363 -4.53715,-2.21071 -4.5995,-1.93373 -9.13184,-2.9982 -15.08649,-3.54322 -0.54018,-0.0494 -2.40849,-0.191 -4.15179,-0.31457 -4.23478,-0.30016 -5.97939,-0.4589 -7.91709,-0.72035 -0.89234,-0.1204 -2.05752,-0.21969 -2.58928,-0.22063 -5.40436,-0.01 -10.80508,-0.94035 -14.84701,-2.55876 -10.62107,-4.25275 -16.37531,-13.97467 -17.72069,-29.93953 -0.21625,-2.56609 -0.2716,-4.10714 -0.14752,-4.10714 0.46579,0 4.97361,1.29933 7.59659,2.18963 1.10491,0.37503 2.138,0.7251 2.29575,0.77793 0.36246,0.12139 0.29397,0.24637 -0.13584,0.2479 -0.62183,0.002 -1.97633,0.3411 -2.64087,0.66073 -1.65809,0.79751 -2.46547,2.16257 -2.46547,4.16842 0,2.83847 1.6004,6.60244 5.17822,12.17861 0.50413,0.78571 1.03266,1.61509 1.1745,1.84305 0.28841,0.46353 2.13308,2.02433 4.54075,3.84202 3.16434,2.38893 5.85901,4.02237 8.52617,5.16834 3.20508,1.3771 5.38627,1.79818 15.71429,3.03366 7.88299,0.943 11.77745,1.57648 15.88368,2.58367 5.10275,1.25162 9.4527,3.03038 12.81105,5.23861 1.17532,0.77282 1.18568,0.67822 -0.14157,1.29244 -1.14007,0.5276 -1.14259,0.52833 -1.34023,0.3899 z"
       id="path4819"
       inkscape:connector-curvature="0"
       transform="scale(0.26458333)" />
    <path
       style="fill:url(#linearGradient4829);fill-opacity:1;stroke:none;stroke-width:0.08928572px;stroke-linecap:butt;stroke-linejoin:miter;stroke-opacity:1"
       d="m 423.5111,481.23353 c -4.91734,-3.3444 -11.54666,-5.58271 -20.92886,-7.06636 -1.84313,-0.29147 -3.51163,-0.50733 -12.12717,-1.56895 -6.46289,-0.79637 -8.67516,-1.24218 -11.17669,-2.2523 -3.68935,-1.48974 -7.30757,-3.82604 -12.14286,-7.84069 -0.9004,-0.74758 -0.97684,-0.83975 -1.93131,-2.32887 -3.92768,-6.12771 -5.51426,-9.79425 -5.36795,-12.40518 0.11637,-2.07678 1.4606,-3.1929 4.18176,-3.47214 0.49735,-0.051 1.09589,-0.0928 1.33008,-0.0928 0.39973,0 0.42903,-0.0161 0.4783,-0.26242 l 0.0525,-0.26242 0.87385,0.34225 c 15.30543,5.99445 33.35131,16.21955 59.9219,33.95278 l 2.26233,1.50988 -0.74447,0.46555 c -1.10402,0.69039 -3.42689,2.0227 -3.52034,2.01914 -0.0447,-0.002 -0.56717,-0.33356 -1.16105,-0.73747 z"
       id="path4821"
       inkscape:connector-curvature="0"
       transform="scale(0.26458333)" />
  </g>
  <g
     style="display:inline"
     inkscape:label="Aile Sup2"
     id="g4806"
     inkscape:groupmode="layer"
     sodipodi:insensitive="true">
    <g
       id="g4798">
      <g
         id="g4794">
        <path
           sodipodi:nodetypes="cccc"
           inkscape:connector-curvature="0"
           id="path4780"
           d="m 114.89249,125.91409 c -0.84635,1.29643 -1.69271,1.20271 -2.53906,1.80407 -7.05788,-3.68946 -11.19557,-1.46734 -21.515199,-11.75986 -0.380527,-0.5933 -0.324294,-1.33219 -0.467723,-2.00452"
           style="fill:none;fill-rule:evenodd;stroke:#000000;stroke-width:0.26458332px;stroke-linecap:butt;stroke-linejoin:miter;stroke-opacity:1" />
        <path
           sodipodi:nodetypes="cc"
           inkscape:connector-curvature="0"
           id="path4782"
           d="m 92.775932,116.39261 c -0.149872,0.0791 -7.038415,-7.43079 -4.343127,-8.71966"
           style="fill:none;fill-rule:evenodd;stroke:#000000;stroke-width:0.26458332px;stroke-linecap:butt;stroke-linejoin:miter;stroke-opacity:1" />
        <path
           sodipodi:nodetypes="cccc"
           inkscape:connector-curvature="0"
           id="path4784"
           d="m 89.902786,110.41246 c -1.225401,-2.286 -2.137099,-3.67921 -1.503392,-7.08264 4.551967,-0.71689 7.103093,3.62716 10.25647,6.44788 2.983476,3.05714 6.744596,5.54872 7.917856,9.92238"
           style="fill:none;fill-rule:evenodd;stroke:#000000;stroke-width:0.26458332px;stroke-linecap:butt;stroke-linejoin:miter;stroke-opacity:1" />
        <path
           sodipodi:nodetypes="cc"
           inkscape:connector-curvature="0"
           id="path4786"
           d="m 105.00351,115.9583 c 3.31117,3.31241 7.556,6.2358 9.88898,9.95579"
           style="fill:none;fill-rule:evenodd;stroke:#000000;stroke-width:0.26458332px;stroke-linecap:butt;stroke-linejoin:miter;stroke-opacity:1" />
        <path
           sodipodi:nodetypes="cc"
           inkscape:connector-curvature="0"
           id="path4788"
           d="m 94.570912,106.00251 c -4.262462,-0.27378 -4.8951,0.78531 -3.832908,5.24517"
           style="fill:none;fill-rule:evenodd;stroke:#000000;stroke-width:0.26458332px;stroke-linecap:butt;stroke-linejoin:miter;stroke-opacity:1" />
        <g
           id="g4792">
          <path
             style="fill:none;fill-rule:evenodd;stroke:#000000;stroke-width:0.26458332px;stroke-linecap:butt;stroke-linejoin:miter;stroke-opacity:1"
             d="m 90.738004,111.24768 c 0.54757,1.72696 1.937356,4.03104 2.472243,4.57699 7.237853,8.5383 12.771083,7.96227 19.110423,11.67882"
             id="path4790"
             inkscape:connector-curvature="0"
             sodipodi:nodetypes="ccc" />
        </g>
      </g>
      <path
         style="fill:none;fill-rule:evenodd;stroke:#000000;stroke-width:0.26458332px;stroke-linecap:butt;stroke-linejoin:miter;stroke-opacity:1"
         d="m 113.15662,123.67429 -1.18117,0.0236 0.0709,1.44103 -2.14973,-0.0472 v 1.46465"
         id="path4796"
         inkscape:connector-curvature="0" />
    </g>
    <path
       transform="scale(0.26458333)"
       inkscape:connector-curvature="0"
       id="path4800"
       d="m 422.26157,480.79953 c -1.24163,-0.60688 -3.14513,-1.46635 -4.23001,-1.90991 l -1.97251,-0.80649 v -2.37821 -2.3782 l 4.06383,0.18486 4.06383,0.18487 -0.18198,-2.80775 -0.18198,-2.80774 h 1.88487 1.88487 l 1.76812,2.20971 c 3.16355,3.95364 4.11698,5.441 3.82371,5.96504 -0.27047,0.4833 -5.89301,4.25978 -7.65509,5.14168 l -1.01015,0.50557 z"
       style="fill:#000000;fill-opacity:1;stroke:none;stroke-width:0.25253814px;stroke-linecap:butt;stroke-linejoin:miter;stroke-opacity:1" />
    <path
       transform="scale(0.26458333)"
       inkscape:connector-curvature="0"
       id="path4802"
       d="m 410.07765,476.01062 c -1.52785,-0.50638 -5.47692,-1.72229 -8.7757,-2.702 -11.55088,-3.43054 -16.20117,-5.18282 -22.91783,-8.63573 -10.18575,-5.23629 -20.35039,-12.95843 -32.33978,-24.56872 -2.45618,-2.37851 -2.68409,-2.69284 -3.08271,-4.25141 -0.27645,-1.08091 -0.66244,-3.84287 -0.55229,-3.95187 0.0406,-0.0402 0.31023,0.2101 0.59917,0.55616 3.45407,4.13687 7.04815,8.02227 7.4171,8.01829 0.42955,-0.005 0.5287,-0.19794 0.31425,-0.61265 -0.16097,-0.31127 -0.16871,-0.39556 -0.0364,-0.39556 0.0925,0 -0.3748,-0.55462 -1.03847,-1.23247 -3.42223,-3.49536 -8.29711,-9.52669 -11.30184,-13.98296 -3.87529,-5.74737 -5.88716,-10.26194 -5.87235,-13.17737 0.006,-1.15681 0.16704,-1.78458 0.63252,-2.4639 0.35466,-0.5176 1.09883,-1.04566 1.25187,-0.88833 0.0613,0.063 0.28142,0.54078 0.48909,1.06164 0.73125,1.83412 2.45397,5.28261 4.0835,8.17425 l 0.37263,0.66124 0.50263,-0.25642 0.50262,-0.25642 -0.89367,-1.66751 c -3.39356,-6.33206 -4.53226,-9.16282 -5.19136,-12.90546 -0.48637,-2.76177 -0.37837,-7.49055 0.24741,-10.8334 0.0623,-0.33309 0.14955,-0.64179 0.19376,-0.686 0.0442,-0.0442 1.17328,-0.10471 2.50903,-0.13444 2.0806,-0.0463 2.65973,-0.0148 4.04127,0.21996 5.12861,0.87137 9.9643,3.50332 15.33683,8.34748 l 0.63816,0.57541 -2.88324,-0.0547 c -9.12605,-0.17316 -12.72392,1.8019 -13.51685,7.4201 -0.36603,2.59342 0.21172,7.58915 1.46343,12.65411 0.86342,3.49379 4.1408,10.23537 7.32568,15.06891 3.05383,4.63466 11.63114,13.51841 18.24449,18.89633 5.79603,4.71327 12.64975,8.99315 19.66554,12.28037 4.01368,1.88059 6.59153,2.93939 17.71011,7.27405 4.25339,1.65822 7.43902,2.97889 7.63086,3.16354 0.0648,0.0624 0.0932,0.1343 0.0631,0.15981 -0.0301,0.0255 -1.30478,-0.36793 -2.83264,-0.87432 z"
       style="fill:url(#linearGradient4750);fill-opacity:1;stroke:none;stroke-width:0.12626907px;stroke-linecap:butt;stroke-linejoin:miter;stroke-opacity:1" />
    <path
       inkscape:connector-curvature="0"
       id="path4804"
       d="m 109.69619,126.08449 c -0.40466,-0.18643 -1.6895,-0.70831 -2.90656,-1.1806 -2.46715,-0.95738 -3.29318,-1.30586 -4.44336,-1.87449 -2.17226,-1.07394 -4.004843,-2.32277 -5.829812,-3.97276 -1.290896,-1.16713 -3.035662,-3.06571 -3.605334,-3.92317 -0.665982,-1.00242 -1.40784,-2.44955 -1.774203,-3.46092 -0.184264,-0.50867 -0.439989,-1.76226 -0.520689,-2.5525 -0.04647,-0.455 -0.0209,-1.18225 0.05053,-1.43832 0.235789,-0.84506 0.840201,-1.24553 2.071315,-1.37238 0.251166,-0.0259 0.691248,-0.0354 1.194361,-0.0257 l 0.796655,0.0153 v -0.0945 c 0,-0.0519 0.01169,-0.0945 0.02595,-0.0945 0.0328,0 1.425327,1.40471 2.277513,2.29743 0.696147,0.72926 2.5181,2.49775 3.760204,3.64988 2.24672,2.08397 3.12099,3.00549 4.00898,4.22564 0.75765,1.04107 1.43557,2.38844 1.70613,3.39098 0.0322,0.11944 0.0622,0.2219 0.0666,0.2277 0.004,0.006 0.0706,-0.006 0.14722,-0.0269 0.13417,-0.0361 0.13842,-0.0414 0.11655,-0.14419 -0.0388,-0.18259 -0.2484,-0.79193 -0.40011,-1.1634 -0.17875,-0.43766 -0.46044,-1.0041 -0.7255,-1.45886 -0.11028,-0.18921 -0.19075,-0.35378 -0.17881,-0.36572 0.0119,-0.0119 0.13776,0.0914 0.27961,0.2297 0.37634,0.36682 1.02848,0.9625 1.84296,1.68341 3.00092,2.65611 3.52931,3.14261 4.59285,4.22871 l 0.76569,0.78193 -0.52747,0.03 -0.52747,0.03 0.0212,0.40432 c 0.0116,0.22238 0.0302,0.54237 0.0412,0.7111 l 0.02,0.30678 -0.63022,-0.0148 c -0.34662,-0.008 -0.82942,-0.0209 -1.07288,-0.0284 l -0.44267,-0.0135 v 0.53174 c 0,0.29246 -0.0113,0.53141 -0.0251,0.53101 -0.0138,-5.3e-4 -0.0927,-0.0319 -0.17539,-0.07 z"
       style="fill:url(#linearGradient4817);fill-opacity:1;stroke:none;stroke-width:0.03340869px;stroke-linecap:butt;stroke-linejoin:miter;stroke-opacity:1" />
  </g>
  <g
     inkscape:groupmode="layer"
     id="layer2"
     inkscape:label="Aile Sup"
     style="display:inline"
     sodipodi:insensitive="true">
    <g
       id="g235">
      <g
         id="g203">
        <path
           style="fill:none;fill-rule:evenodd;stroke:#000000;stroke-width:0.26458332px;stroke-linecap:butt;stroke-linejoin:miter;stroke-opacity:1"
           d="m 114.89249,125.91409 c -0.84635,1.29643 -1.69271,1.20271 -2.53906,1.80407 -7.05788,-3.68946 -11.19557,-1.46734 -21.515199,-11.75986 -0.380527,-0.5933 -0.324294,-1.33219 -0.467723,-2.00452"
           id="path140"
           inkscape:connector-curvature="0"
           sodipodi:nodetypes="cccc" />
        <path
           style="fill:none;fill-rule:evenodd;stroke:#000000;stroke-width:0.26458332px;stroke-linecap:butt;stroke-linejoin:miter;stroke-opacity:1"
           d="m 92.775932,116.39261 c -0.149872,0.0791 -7.038415,-7.43079 -4.343127,-8.71966"
           id="path142"
           inkscape:connector-curvature="0"
           sodipodi:nodetypes="cc" />
        <path
           style="fill:none;fill-rule:evenodd;stroke:#000000;stroke-width:0.26458332px;stroke-linecap:butt;stroke-linejoin:miter;stroke-opacity:1"
           d="m 89.902786,110.41246 c -1.225401,-2.286 -2.137099,-3.67921 -1.503392,-7.08264 4.551967,-0.71689 7.103093,3.62716 10.25647,6.44788 2.983476,3.05714 6.744596,5.54872 7.917856,9.92238"
           id="path144"
           inkscape:connector-curvature="0"
           sodipodi:nodetypes="cccc" />
        <path
           style="fill:none;fill-rule:evenodd;stroke:#000000;stroke-width:0.26458332px;stroke-linecap:butt;stroke-linejoin:miter;stroke-opacity:1"
           d="m 105.00351,115.9583 c 3.31117,3.31241 7.556,6.2358 9.88898,9.95579"
           id="path146"
           inkscape:connector-curvature="0"
           sodipodi:nodetypes="cc" />
        <path
           style="fill:none;fill-rule:evenodd;stroke:#000000;stroke-width:0.26458332px;stroke-linecap:butt;stroke-linejoin:miter;stroke-opacity:1"
           d="m 94.570912,106.00251 c -4.262462,-0.27378 -4.8951,0.78531 -3.832908,5.24517"
           id="path148"
           inkscape:connector-curvature="0"
           sodipodi:nodetypes="cc" />
        <g
           id="g4740">
          <path
             sodipodi:nodetypes="ccc"
             inkscape:connector-curvature="0"
             id="path150"
             d="m 90.738004,111.24768 c 0.54757,1.72696 1.937356,4.03104 2.472243,4.57699 7.237853,8.5383 12.771083,7.96227 19.110423,11.67882"
             style="fill:none;fill-rule:evenodd;stroke:#000000;stroke-width:0.26458332px;stroke-linecap:butt;stroke-linejoin:miter;stroke-opacity:1" />
        </g>
      </g>
      <path
         inkscape:connector-curvature="0"
         id="path225"
         d="m 113.15662,123.67429 -1.18117,0.0236 0.0709,1.44103 -2.14973,-0.0472 v 1.46465"
         style="fill:none;fill-rule:evenodd;stroke:#000000;stroke-width:0.26458332px;stroke-linecap:butt;stroke-linejoin:miter;stroke-opacity:1" />
    </g>
    <path
       style="fill:#000000;fill-opacity:1;stroke:none;stroke-width:0.25253814px;stroke-linecap:butt;stroke-linejoin:miter;stroke-opacity:1"
       d="m 422.26157,480.79953 c -1.24163,-0.60688 -3.14513,-1.46635 -4.23001,-1.90991 l -1.97251,-0.80649 v -2.37821 -2.3782 l 4.06383,0.18486 4.06383,0.18487 -0.18198,-2.80775 -0.18198,-2.80774 h 1.88487 1.88487 l 1.76812,2.20971 c 3.16355,3.95364 4.11698,5.441 3.82371,5.96504 -0.27047,0.4833 -5.89301,4.25978 -7.65509,5.14168 l -1.01015,0.50557 z"
       id="path260"
       inkscape:connector-curvature="0"
       transform="scale(0.26458333)" />
    <path
       style="fill:url(#linearGradient4750);fill-opacity:1;stroke:none;stroke-width:0.12626907px;stroke-linecap:butt;stroke-linejoin:miter;stroke-opacity:1"
       d="m 410.07765,476.01062 c -1.52785,-0.50638 -5.47692,-1.72229 -8.7757,-2.702 -11.55088,-3.43054 -16.20117,-5.18282 -22.91783,-8.63573 -10.18575,-5.23629 -20.35039,-12.95843 -32.33978,-24.56872 -2.45618,-2.37851 -2.68409,-2.69284 -3.08271,-4.25141 -0.27645,-1.08091 -0.66244,-3.84287 -0.55229,-3.95187 0.0406,-0.0402 0.31023,0.2101 0.59917,0.55616 3.45407,4.13687 7.04815,8.02227 7.4171,8.01829 0.42955,-0.005 0.5287,-0.19794 0.31425,-0.61265 -0.16097,-0.31127 -0.16871,-0.39556 -0.0364,-0.39556 0.0925,0 -0.3748,-0.55462 -1.03847,-1.23247 -3.42223,-3.49536 -8.29711,-9.52669 -11.30184,-13.98296 -3.87529,-5.74737 -5.88716,-10.26194 -5.87235,-13.17737 0.006,-1.15681 0.16704,-1.78458 0.63252,-2.4639 0.35466,-0.5176 1.09883,-1.04566 1.25187,-0.88833 0.0613,0.063 0.28142,0.54078 0.48909,1.06164 0.73125,1.83412 2.45397,5.28261 4.0835,8.17425 l 0.37263,0.66124 0.50263,-0.25642 0.50262,-0.25642 -0.89367,-1.66751 c -3.39356,-6.33206 -4.53226,-9.16282 -5.19136,-12.90546 -0.48637,-2.76177 -0.37837,-7.49055 0.24741,-10.8334 0.0623,-0.33309 0.14955,-0.64179 0.19376,-0.686 0.0442,-0.0442 1.17328,-0.10471 2.50903,-0.13444 2.0806,-0.0463 2.65973,-0.0148 4.04127,0.21996 5.12861,0.87137 9.9643,3.50332 15.33683,8.34748 l 0.63816,0.57541 -2.88324,-0.0547 c -9.12605,-0.17316 -12.72392,1.8019 -13.51685,7.4201 -0.36603,2.59342 0.21172,7.58915 1.46343,12.65411 0.86342,3.49379 4.1408,10.23537 7.32568,15.06891 3.05383,4.63466 11.63114,13.51841 18.24449,18.89633 5.79603,4.71327 12.64975,8.99315 19.66554,12.28037 4.01368,1.88059 6.59153,2.93939 17.71011,7.27405 4.25339,1.65822 7.43902,2.97889 7.63086,3.16354 0.0648,0.0624 0.0932,0.1343 0.0631,0.15981 -0.0301,0.0255 -1.30478,-0.36793 -2.83264,-0.87432 z"
       id="path4742"
       inkscape:connector-curvature="0"
       transform="scale(0.26458333)" />
    <path
       style="fill:url(#linearGradient4778);fill-opacity:1;stroke:none;stroke-width:0.12626907px;stroke-linecap:butt;stroke-linejoin:miter;stroke-opacity:1"
       d="m 414.05513,475.9441 c -1.52943,-0.70463 -6.38549,-2.67708 -10.98541,-4.4621 -9.32466,-3.61846 -12.44668,-4.93554 -16.79379,-7.0847 -8.21012,-4.059 -15.13643,-8.77898 -22.03395,-15.01517 -4.87898,-4.4112 -11.47337,-11.58691 -13.62646,-14.8277 -2.5171,-3.78869 -5.32097,-9.25817 -6.70565,-13.08065 -0.69643,-1.92253 -1.66295,-6.66051 -1.96796,-9.64723 -0.17562,-1.7197 -0.079,-4.46835 0.19099,-5.4362 0.89117,-3.19393 3.17556,-4.7075 7.82859,-5.18695 0.94929,-0.0978 2.61259,-0.13362 4.51412,-0.0972 l 3.01098,0.0577 v -0.35698 c 0,-0.19634 0.0442,-0.35699 0.0981,-0.35699 0.12395,0 5.38706,5.30912 8.60792,8.68318 2.63111,2.75626 9.51723,9.44035 14.21179,13.79484 8.49155,7.87643 11.79588,11.35934 15.15205,15.97091 2.86359,3.93476 5.42578,9.02717 6.44837,12.81631 0.12182,0.45142 0.23506,0.83869 0.25164,0.86062 0.0166,0.0219 0.26696,-0.0239 0.55642,-0.10185 0.50713,-0.13655 0.52316,-0.15639 0.44052,-0.54494 -0.14678,-0.69013 -0.93882,-2.99313 -1.51224,-4.39713 -0.67557,-1.65412 -1.74025,-3.79502 -2.74204,-5.5138 -0.4168,-0.71512 -0.72092,-1.33712 -0.67581,-1.38223 0.0451,-0.0451 0.52068,0.34556 1.05681,0.86815 1.42236,1.38641 3.88714,3.63781 6.96551,6.36248 11.34204,10.03886 13.33911,11.87759 17.3588,15.98255 l 2.89393,2.95531 -1.99359,0.11335 -1.99358,0.11336 0.08,1.52814 c 0.044,0.84048 0.11411,2.04991 0.15576,2.68763 l 0.0757,1.15948 -2.38192,-0.0561 c -1.31006,-0.0308 -3.1348,-0.0791 -4.05499,-0.10719 l -1.67307,-0.0511 v 2.00973 c 0,1.10535 -0.0426,2.00848 -0.0947,2.00695 -0.0521,-0.002 -0.35039,-0.12057 -0.66291,-0.26455 z"
       id="path4770"
       inkscape:connector-curvature="0"
       transform="scale(0.26458333)" />
  </g>
  <g
     inkscape:groupmode="layer"
     id="layer5"
     inkscape:label="Corps"
     style="display:inline"
     sodipodi:insensitive="true">
    <path
       style="fill:none;fill-rule:evenodd;stroke:#000000;stroke-width:0.26458332px;stroke-linecap:butt;stroke-linejoin:miter;stroke-opacity:1"
       d="m 118.7679,126.54886 1.26952,1.5368 c -0.43301,1.51961 -3.65268,4.74403 -5.17834,6.01356 -3.71836,2.93797 -6.45528,4.25864 -8.75308,4.6104 -1.80328,0.66818 -2.13815,2.13815 -3.20723,3.20723 0.45495,-1.33798 1.40683,-2.84721 1.33634,-4.04245 0.0726,-1.52566 0.32653,-3.11815 1.46999,-4.57699 l 4.94448,-4.97789 c 0.7621,0.12106 2.75255,-1.1811 4.87767,-2.63929 1.41859,-0.10523 2.34695,0.36148 3.24065,0.86863 z"
       id="path206"
       inkscape:connector-curvature="0"
       sodipodi:nodetypes="cccccccccc" />
    <path
       style="fill:url(#linearGradient4873);fill-opacity:1;stroke:none;stroke-width:0.12626907px;stroke-linecap:butt;stroke-linejoin:miter;stroke-opacity:1"
       d="m 391.35393,531.96243 c 0,-0.0286 0.37366,-0.92353 0.83036,-1.98874 1.58566,-3.69842 2.32523,-6.30625 2.32745,-8.20689 5.9e-4,-0.50995 0.0563,-1.58062 0.12368,-2.37927 0.39751,-4.70783 1.16774,-7.77451 2.77496,-11.04855 1.55434,-3.16631 1.49301,-3.09623 11.75831,-13.4342 8.7312,-8.79299 9.31791,-9.35736 9.72776,-9.35736 0.23989,0 0.77482,-0.0938 1.18873,-0.20853 0.41392,-0.11469 0.93465,-0.22238 1.15718,-0.2393 0.22522,-0.0171 1.04131,-0.40051 1.84079,-0.86476 0.78991,-0.45869 1.47235,-0.83399 1.51653,-0.83399 0.0442,0 0.51206,-0.26211 1.03974,-0.58247 0.52768,-0.32036 1.70119,-0.92161 2.60781,-1.33611 2.38621,-1.09096 3.91791,-2.09407 4.89254,-3.2041 0.21618,-0.24621 1.1405,-0.95578 2.05406,-1.57683 l 1.66101,-1.12917 h 1.47096 c 1.80999,0 3.43953,0.26357 5.17726,0.83739 1.38951,0.45884 4.41375,1.90186 4.95605,2.3648 0.50123,0.42787 4.51413,5.35627 4.51413,5.54397 0,0.35778 -1.01661,2.24115 -1.99252,3.69134 -2.27584,3.3819 -5.26805,6.83107 -10.24908,11.81432 -2.05229,2.0532 -4.44566,4.35446 -5.3186,5.1139 -3.8539,3.35282 -10.62178,8.22285 -15.48612,11.1435 -6.54973,3.93259 -11.9326,6.1852 -17.5537,7.34584 -4.02958,0.83203 -6.58715,2.70182 -9.7324,7.11516 -0.88416,1.24064 -1.28689,1.68504 -1.28689,1.42005 z"
       id="path4857"
       inkscape:connector-curvature="0"
       transform="scale(0.26458333)" />
  </g>
  <g
     style="display:inline"
     inkscape:label="Tete 2"
     id="g4970"
     inkscape:groupmode="layer"
     sodipodi:insensitive="true">
    <g
       id="g4948">
      <path
         style="fill:none;fill-rule:evenodd;stroke:#000000;stroke-width:0.26458332px;stroke-linecap:butt;stroke-linejoin:miter;stroke-opacity:1"
         d="m 125.04873,129.25496 c -1.15721,-0.88191 -2.49548,-1.35646 -4.00905,-1.43657 l -2.27178,-2.23838 c -0.24251,-0.67931 -0.1389,-1.35863 -0.0334,-2.03794 0.27856,-0.72369 1.0696,-0.93491 1.87088,-1.13589 1.43694,0.25117 2.93348,0.4189 3.94223,1.26953 0.80781,1.34466 1.08458,2.74242 1.00226,4.17609 z"
         id="path4928"
         inkscape:connector-curvature="0"
         sodipodi:nodetypes="cccccccc" />
      <path
         style="fill:none;fill-rule:evenodd;stroke:#000000;stroke-width:0.26458332px;stroke-linecap:butt;stroke-linejoin:miter;stroke-opacity:1"
         d="m 125.48304,127.1168 c -0.41204,-0.34678 -0.82408,-0.21651 -1.23612,-0.13363 0.0565,0.72896 -0.40052,1.04711 -0.7684,1.43657"
         id="path4930"
         inkscape:connector-curvature="0"
         sodipodi:nodetypes="ccc" />
      <path
         style="fill:none;fill-rule:evenodd;stroke:#000000;stroke-width:0.26458332px;stroke-linecap:butt;stroke-linejoin:miter;stroke-opacity:1"
         d="m 124.5476,128.21929 1.33635,1.60362"
         id="path4932"
         inkscape:connector-curvature="0" />
      <path
         style="fill:none;fill-rule:evenodd;stroke:#000000;stroke-width:0.26458332px;stroke-linecap:butt;stroke-linejoin:miter;stroke-opacity:1"
         d="m 121.20673,123.20799 c 1.41596,0.29783 2.82119,0.542 4.40995,1.70384"
         id="path4934"
         inkscape:connector-curvature="0"
         sodipodi:nodetypes="cc" />
      <path
         style="fill:none;fill-rule:evenodd;stroke:#000000;stroke-width:0.26458332px;stroke-linecap:butt;stroke-linejoin:miter;stroke-opacity:1"
         d="m 121.74127,123.77594 2.87315,0.93544 c -0.83019,-0.0527 -1.4527,0.0193 -1.83748,0.23386 z"
         id="path4936"
         inkscape:connector-curvature="0"
         sodipodi:nodetypes="cccc" />
      <path
         style="fill:none;fill-rule:evenodd;stroke:#000000;stroke-width:0.26458332px;stroke-linecap:butt;stroke-linejoin:miter;stroke-opacity:1"
         d="m 121.44059,122.33936 -2.40543,-7.88445 1.9043,0.53454 1.36976,1.46998 -0.60136,-0.0334 -0.73499,-0.90203 -1.16931,-0.23386 2.43884,7.11605 z"
         id="path4938"
         inkscape:connector-curvature="0" />
      <path
         style="fill:none;fill-rule:evenodd;stroke:#000000;stroke-width:0.26458332px;stroke-linecap:butt;stroke-linejoin:miter;stroke-opacity:1"
         d="m 124.3896,116.9534 -0.47247,-0.3071 -0.21261,-0.44885 -0.34254,-0.0236 -0.2953,-0.64964 -1.13392,1.54734 -0.18899,5.3271 -0.72052,-0.12993 0.47247,-5.5279 c 0,0 0.99219,-1.77177 1.11031,-1.77177 0.11811,0 0.7087,-0.0118 0.7087,-0.0118 l 0.79139,1.02763 c 0,0 0.27167,0.89769 0.28348,0.96856 z"
         id="path4940"
         inkscape:connector-curvature="0" />
      <path
         style="fill:none;fill-rule:evenodd;stroke:#000000;stroke-width:0.26458332px;stroke-linecap:butt;stroke-linejoin:miter;stroke-opacity:1"
         d="m 122.08631,116.82347 -0.59059,-0.0827"
         id="path4942"
         inkscape:connector-curvature="0" />
      <g
         id="g4946">
        <path
           inkscape:connector-curvature="0"
           id="path4944"
           d="m 122.10993,115.76041 0.41341,0.47248"
           style="fill:none;fill-rule:evenodd;stroke:#000000;stroke-width:0.26458332px;stroke-linecap:butt;stroke-linejoin:miter;stroke-opacity:1" />
      </g>
    </g>
    <path
       transform="scale(0.26458333)"
       inkscape:connector-curvature="0"
       id="path4950"
       d="m 465.04345,483.89297 c -1.82463,-0.60379 -3.65787,-0.99505 -5.8059,-1.23913 l -1.59501,-0.18124 -4.14965,-4.14683 c -3.89634,-3.8937 -4.16098,-4.19967 -4.33526,-5.0123 -0.41236,-1.92276 -0.0989,-5.79413 0.556,-6.86712 0.73466,-1.20366 2.04211,-1.99774 4.50502,-2.73613 l 1.58591,-0.47547 2.96766,0.51498 c 4.98557,0.86515 8.09466,1.83353 10.14836,3.1609 1.59151,1.02864 2.51359,2.33321 1.16751,1.65181 -1.14152,-0.57785 -4.02033,-1.59867 -6.05086,-2.14562 -2.32513,-0.62631 -5.74978,-1.3619 -5.85423,-1.25745 -0.0411,0.0411 -0.12833,0.28805 -0.19374,0.54868 -0.12514,0.49862 -0.11149,0.50875 1.0274,0.7622 0.69919,0.1556 0.61551,0.4744 -0.0893,0.34016 l -0.58036,-0.11055 0.37049,0.42751 c 0.96198,1.11004 4.63284,5.28602 4.90263,5.57725 0.29505,0.3185 0.32485,0.31782 0.99765,-0.0226 1.05048,-0.53158 2.38203,-0.75209 4.54159,-0.75209 h 1.9555 l 0.0212,-0.49107 c 0.0116,-0.27009 0.005,-0.60585 -0.0152,-0.74612 -0.0304,-0.21387 0.0305,-0.21069 0.37749,0.0197 0.73975,0.49118 2.0474,4.88271 2.34653,7.88045 0.0747,0.74822 0.048,0.84178 -0.20607,0.7233 -0.51447,-0.23993 -2.65474,-0.27864 -3.67661,-0.0665 l -0.99021,0.20557 -0.004,0.92484 c -0.002,0.51972 -0.15273,1.25261 -0.34364,1.67311 -0.32329,0.71208 -1.71648,2.39609 -1.95196,2.35941 -0.0611,-0.01 -0.79422,-0.24334 -1.62904,-0.51959 z"
       style="fill:url(#linearGradient4908);fill-opacity:1;stroke:none;stroke-width:0.17857143px;stroke-linecap:butt;stroke-linejoin:miter;stroke-opacity:1" />
    <path
       transform="scale(0.26458333)"
       inkscape:connector-curvature="0"
       id="path4952"
       d="m 465.26925,468.92992 c -3.2007,-1.04662 -5.83983,-1.92356 -5.86472,-1.94877 -0.0249,-0.0252 -0.0105,-0.0878 0.0321,-0.13902 0.0429,-0.0517 0.0587,-0.15181 0.0355,-0.22496 -0.0358,-0.11294 -0.0208,-0.12696 0.10527,-0.0981 0.0809,0.0185 0.67268,0.14899 1.31508,0.28995 4.01475,0.88096 6.38794,1.67077 9.1545,3.04668 0.9174,0.45626 1.25128,0.64977 1.14665,0.66459 -0.12152,0.0172 -0.14084,0.0479 -0.10928,0.17362 0.0211,0.084 0.0307,0.14962 0.0213,0.14584 -0.009,-0.004 -2.63574,-0.8632 -5.83644,-1.90982 z"
       style="fill:#000000;fill-opacity:1;stroke:none;stroke-width:0.06313454px;stroke-linecap:butt;stroke-linejoin:miter;stroke-opacity:1" />
    <path
       transform="scale(0.26458333)"
       inkscape:connector-curvature="0"
       id="path4954"
       d="m 459.7242,454.28959 c -0.0153,-0.0434 -0.22176,-0.64713 -0.45873,-1.34161 l -0.43084,-1.26269 0.42599,-4.9245 c 0.23429,-2.70847 0.42741,-4.9261 0.42914,-4.92808 0.002,-0.002 0.20012,0.0231 0.44085,0.0557 l 0.43769,0.0592 -0.12195,0.16531 c -0.11458,0.15532 -0.13338,0.49525 -0.31113,5.62645 -0.20939,6.04427 -0.23796,6.62912 -0.3239,6.62912 -0.0326,0 -0.0718,-0.0355 -0.0871,-0.0789 z"
       style="fill:#000000;fill-opacity:1;stroke:none;stroke-width:0.06313454px;stroke-linecap:butt;stroke-linejoin:miter;stroke-opacity:1" />
    <path
       transform="scale(0.26458333)"
       inkscape:connector-curvature="0"
       id="path4956"
       d="m 468.94896,440.61025 c -0.1332,-0.0878 -0.29786,-0.36512 -0.60891,-1.02552 l -0.42633,-0.90516 -0.65378,-0.0546 -0.65379,-0.0546 -0.66291,-1.47477 c -0.3646,-0.81112 -0.68052,-1.4755 -0.70203,-1.47641 -0.0289,-10e-4 -1.41654,1.85603 -2.09358,2.80215 -0.0492,0.0688 -0.15439,-0.034 -0.78251,-0.76391 l -0.28194,-0.32766 0.48584,-0.77719 c 0.26722,-0.42746 0.60304,-0.94018 0.74626,-1.13939 l 0.26041,-0.36219 1.13561,0.0149 1.13561,0.0149 1.36747,1.76777 c 1.12577,1.45533 1.38537,1.82914 1.46878,2.11501 0.0557,0.19098 0.19797,0.66686 0.31609,1.0575 0.11812,0.39065 0.1962,0.71008 0.17352,0.70985 -0.0227,-2.3e-4 -0.1234,-0.0546 -0.22381,-0.12078 z"
       style="fill:#000000;fill-opacity:1;stroke:none;stroke-width:0.06313454px;stroke-linecap:butt;stroke-linejoin:miter;stroke-opacity:1" />
    <path
       transform="scale(0.26458333)"
       inkscape:connector-curvature="0"
       id="path4958"
       d="m 457.33538,455.07877 c -0.0718,-0.11721 -6.60845,-21.62796 -6.58068,-21.65572 0.0172,-0.0172 1.38302,0.3477 3.03519,0.81085 l 3.00396,0.8421 1.63831,1.75879 1.63831,1.75879 -0.0968,0.18711 c -0.0532,0.10292 -0.11972,0.17293 -0.14777,0.15559 -0.0281,-0.0173 -0.5579,-0.6544 -1.17742,-1.41568 l -1.12641,-1.38416 -2.74034,-0.54797 c -1.50718,-0.30138 -2.74874,-0.53888 -2.75902,-0.52777 -0.0103,0.0111 1.27356,3.7846 2.85295,8.38553 l 2.87163,8.36533 -0.10403,1.29425 c -0.14271,1.77558 -0.17039,2.02031 -0.22849,2.02031 -0.0277,0 -0.0635,-0.0213 -0.0794,-0.0473 z"
       style="fill:#000000;fill-opacity:1;stroke:none;stroke-width:0.06313454px;stroke-linecap:butt;stroke-linejoin:miter;stroke-opacity:1" />
    <path
       transform="scale(0.26458333)"
       inkscape:connector-curvature="0"
       id="path4960"
       d="m 458.9409,460.38207 c -0.25077,-0.8247 -0.50152,-1.64751 -0.55721,-1.82847 -0.0949,-0.30833 -0.0919,-0.44242 0.0476,-2.13213 0.0978,-1.18461 0.17184,-1.79565 0.21595,-1.78139 0.0369,0.0119 0.30337,0.70149 0.59208,1.53235 l 0.52493,1.51064 -0.0363,1.29426 c -0.0693,2.47031 -0.10265,2.90418 -0.2235,2.90418 -0.0855,0 -0.20105,-0.30742 -0.56352,-1.49944 z"
       style="fill:#000000;fill-opacity:1;stroke:none;stroke-width:0.06313454px;stroke-linecap:butt;stroke-linejoin:miter;stroke-opacity:1" />
    <path
       transform="scale(0.26458333)"
       inkscape:connector-curvature="0"
       id="path4962"
       d="m 458.0936,461.72696 c -0.0738,-0.0132 -0.13501,-0.0247 -0.13604,-0.0255 -0.007,-0.005 0.0545,-0.6276 0.0629,-0.63596 0.006,-0.006 0.0169,-0.004 0.0247,0.004 0.0258,0.0268 0.21912,0.68561 0.20053,0.68342 -0.01,-0.001 -0.0783,-0.0129 -0.15211,-0.0262 z"
       style="fill:#000000;fill-opacity:1;stroke:none;stroke-width:0.01578363px;stroke-linecap:butt;stroke-linejoin:miter;stroke-opacity:1" />
    <path
       transform="scale(0.26458333)"
       inkscape:connector-curvature="0"
       id="path4964"
       d="m 460.97135,462.04108 c -0.15778,-0.014 -0.29162,-0.0302 -0.29743,-0.0361 -0.0109,-0.011 0.0379,-1.48334 0.0496,-1.49559 0.004,-0.004 0.013,-2.1e-4 0.021,0.008 0.0115,0.0117 0.53735,1.52646 0.53735,1.54797 0,0.003 -0.005,0.005 -0.0118,0.003 -0.007,-10e-4 -0.14093,-0.0136 -0.29871,-0.0276 z"
       style="fill:#000000;fill-opacity:1;stroke:none;stroke-width:0.01578363px;stroke-linecap:butt;stroke-linejoin:miter;stroke-opacity:1" />
    <path
       transform="scale(0.26458333)"
       inkscape:connector-curvature="0"
       id="path4966"
       d="m 460.78076,439.56809 c -0.0195,-0.004 -0.0355,-0.0107 -0.0355,-0.0154 0,-0.0168 0.0841,-0.16282 0.0938,-0.16282 0.005,0 0.052,0.0426 0.10354,0.0947 l 0.0937,0.0947 -0.10999,-0.002 c -0.0605,-10e-4 -0.12597,-0.005 -0.14551,-0.009 z"
       style="fill:#000000;fill-opacity:1;stroke:none;stroke-width:0.01578363px;stroke-linecap:butt;stroke-linejoin:miter;stroke-opacity:1" />
    <path
       transform="scale(0.26458333)"
       inkscape:connector-curvature="0"
       id="path4968"
       d="m 470.94515,486.66445 c -0.55558,-0.34965 -1.45051,-0.85942 -1.98874,-1.13283 -0.53822,-0.2734 -0.97858,-0.53111 -0.97858,-0.57269 0,-0.0416 0.2934,-0.39607 0.65201,-0.78777 0.81349,-0.88857 1.3702,-2.04752 1.46018,-3.03977 l 0.0679,-0.74884 0.87455,-0.14751 c 1.03528,-0.17463 1.58948,-0.0925 2.4222,0.35897 l 0.61549,0.33368 -0.0657,1.13938 c -0.0457,0.79332 -0.16642,1.40781 -0.39738,2.02325 -0.18243,0.48614 -0.42033,1.12537 -0.52867,1.42053 -0.10834,0.29515 -0.24266,0.53664 -0.29848,0.53664 -0.0558,0 -0.42691,-0.39775 -0.82464,-0.88388 -0.39772,-0.48614 -0.7846,-0.88389 -0.85973,-0.88389 -0.0751,0 -0.29326,0.15009 -0.48473,0.33353 l -0.34812,0.33353 0.78316,0.93562 c 1.40824,1.68239 1.40236,1.72799 -0.10073,0.78205 z"
       style="fill:url(#linearGradient4972);fill-opacity:1;stroke:none;stroke-width:0.12626907px;stroke-linecap:butt;stroke-linejoin:miter;stroke-opacity:1" />
  </g>
  <g
     inkscape:groupmode="layer"
     id="layer4"
     inkscape:label="Tete"
     style="display:inline"
     sodipodi:insensitive="true">
    <g
       id="g191">
      <path
         sodipodi:nodetypes="cccccccc"
         inkscape:connector-curvature="0"
         id="path158"
         d="m 125.04873,129.25496 c -1.15721,-0.88191 -2.49548,-1.35646 -4.00905,-1.43657 l -2.27178,-2.23838 c -0.24251,-0.67931 -0.1389,-1.35863 -0.0334,-2.03794 0.27856,-0.72369 1.0696,-0.93491 1.87088,-1.13589 1.43694,0.25117 2.93348,0.4189 3.94223,1.26953 0.80781,1.34466 1.08458,2.74242 1.00226,4.17609 z"
         style="fill:none;fill-rule:evenodd;stroke:#000000;stroke-width:0.26458332px;stroke-linecap:butt;stroke-linejoin:miter;stroke-opacity:1" />
      <path
         sodipodi:nodetypes="ccc"
         inkscape:connector-curvature="0"
         id="path160"
         d="m 125.48304,127.1168 c -0.41204,-0.34678 -0.82408,-0.21651 -1.23612,-0.13363 0.0565,0.72896 -0.40052,1.04711 -0.7684,1.43657"
         style="fill:none;fill-rule:evenodd;stroke:#000000;stroke-width:0.26458332px;stroke-linecap:butt;stroke-linejoin:miter;stroke-opacity:1" />
      <path
         inkscape:connector-curvature="0"
         id="path162"
         d="m 124.5476,128.21929 1.33635,1.60362"
         style="fill:none;fill-rule:evenodd;stroke:#000000;stroke-width:0.26458332px;stroke-linecap:butt;stroke-linejoin:miter;stroke-opacity:1" />
      <path
         sodipodi:nodetypes="cc"
         inkscape:connector-curvature="0"
         id="path164"
         d="m 121.20673,123.20799 c 1.41596,0.29783 2.82119,0.542 4.40995,1.70384"
         style="fill:none;fill-rule:evenodd;stroke:#000000;stroke-width:0.26458332px;stroke-linecap:butt;stroke-linejoin:miter;stroke-opacity:1" />
      <path
         sodipodi:nodetypes="cccc"
         inkscape:connector-curvature="0"
         id="path166"
         d="m 121.74127,123.77594 2.87315,0.93544 c -0.83019,-0.0527 -1.4527,0.0193 -1.83748,0.23386 z"
         style="fill:none;fill-rule:evenodd;stroke:#000000;stroke-width:0.26458332px;stroke-linecap:butt;stroke-linejoin:miter;stroke-opacity:1" />
      <path
         inkscape:connector-curvature="0"
         id="path168"
         d="m 121.44059,122.33936 -2.40543,-7.88445 1.9043,0.53454 1.36976,1.46998 -0.60136,-0.0334 -0.73499,-0.90203 -1.16931,-0.23386 2.43884,7.11605 z"
         style="fill:none;fill-rule:evenodd;stroke:#000000;stroke-width:0.26458332px;stroke-linecap:butt;stroke-linejoin:miter;stroke-opacity:1" />
      <path
         inkscape:connector-curvature="0"
         id="path170"
         d="m 124.3896,116.9534 -0.47247,-0.3071 -0.21261,-0.44885 -0.34254,-0.0236 -0.2953,-0.64964 -1.13392,1.54734 -0.18899,5.3271 -0.72052,-0.12993 0.47247,-5.5279 c 0,0 0.99219,-1.77177 1.11031,-1.77177 0.11811,0 0.7087,-0.0118 0.7087,-0.0118 l 0.79139,1.02763 c 0,0 0.27167,0.89769 0.28348,0.96856 z"
         style="fill:none;fill-rule:evenodd;stroke:#000000;stroke-width:0.26458332px;stroke-linecap:butt;stroke-linejoin:miter;stroke-opacity:1" />
      <path
         inkscape:connector-curvature="0"
         id="path172"
         d="m 122.08631,116.82347 -0.59059,-0.0827"
         style="fill:none;fill-rule:evenodd;stroke:#000000;stroke-width:0.26458332px;stroke-linecap:butt;stroke-linejoin:miter;stroke-opacity:1" />
      <g
         id="g179">
        <path
           style="fill:none;fill-rule:evenodd;stroke:#000000;stroke-width:0.26458332px;stroke-linecap:butt;stroke-linejoin:miter;stroke-opacity:1"
           d="m 122.10993,115.76041 0.41341,0.47248"
           id="path176"
           inkscape:connector-curvature="0" />
      </g>
    </g>
    <path
       style="fill:url(#linearGradient4908);fill-opacity:1;stroke:none;stroke-width:0.17857143px;stroke-linecap:butt;stroke-linejoin:miter;stroke-opacity:1"
       d="m 465.04345,483.89297 c -1.82463,-0.60379 -3.65787,-0.99505 -5.8059,-1.23913 l -1.59501,-0.18124 -4.14965,-4.14683 c -3.89634,-3.8937 -4.16098,-4.19967 -4.33526,-5.0123 -0.41236,-1.92276 -0.0989,-5.79413 0.556,-6.86712 0.73466,-1.20366 2.04211,-1.99774 4.50502,-2.73613 l 1.58591,-0.47547 2.96766,0.51498 c 4.98557,0.86515 8.09466,1.83353 10.14836,3.1609 1.59151,1.02864 2.51359,2.33321 1.16751,1.65181 -1.14152,-0.57785 -4.02033,-1.59867 -6.05086,-2.14562 -2.32513,-0.62631 -5.74978,-1.3619 -5.85423,-1.25745 -0.0411,0.0411 -0.12833,0.28805 -0.19374,0.54868 -0.12514,0.49862 -0.11149,0.50875 1.0274,0.7622 0.69919,0.1556 0.61551,0.4744 -0.0893,0.34016 l -0.58036,-0.11055 0.37049,0.42751 c 0.96198,1.11004 4.63284,5.28602 4.90263,5.57725 0.29505,0.3185 0.32485,0.31782 0.99765,-0.0226 1.05048,-0.53158 2.38203,-0.75209 4.54159,-0.75209 h 1.9555 l 0.0212,-0.49107 c 0.0116,-0.27009 0.005,-0.60585 -0.0152,-0.74612 -0.0304,-0.21387 0.0305,-0.21069 0.37749,0.0197 0.73975,0.49118 2.0474,4.88271 2.34653,7.88045 0.0747,0.74822 0.048,0.84178 -0.20607,0.7233 -0.51447,-0.23993 -2.65474,-0.27864 -3.67661,-0.0665 l -0.99021,0.20557 -0.004,0.92484 c -0.002,0.51972 -0.15273,1.25261 -0.34364,1.67311 -0.32329,0.71208 -1.71648,2.39609 -1.95196,2.35941 -0.0611,-0.01 -0.79422,-0.24334 -1.62904,-0.51959 z"
       id="path4831"
       inkscape:connector-curvature="0"
       transform="scale(0.26458333)" />
    <path
       style="fill:#000000;fill-opacity:1;stroke:none;stroke-width:0.06313454px;stroke-linecap:butt;stroke-linejoin:miter;stroke-opacity:1"
       d="m 465.26925,468.92992 c -3.2007,-1.04662 -5.83983,-1.92356 -5.86472,-1.94877 -0.0249,-0.0252 -0.0105,-0.0878 0.0321,-0.13902 0.0429,-0.0517 0.0587,-0.15181 0.0355,-0.22496 -0.0358,-0.11294 -0.0208,-0.12696 0.10527,-0.0981 0.0809,0.0185 0.67268,0.14899 1.31508,0.28995 4.01475,0.88096 6.38794,1.67077 9.1545,3.04668 0.9174,0.45626 1.25128,0.64977 1.14665,0.66459 -0.12152,0.0172 -0.14084,0.0479 -0.10928,0.17362 0.0211,0.084 0.0307,0.14962 0.0213,0.14584 -0.009,-0.004 -2.63574,-0.8632 -5.83644,-1.90982 z"
       id="path4833"
       inkscape:connector-curvature="0"
       transform="scale(0.26458333)" />
    <path
       style="fill:#000000;fill-opacity:1;stroke:none;stroke-width:0.06313454px;stroke-linecap:butt;stroke-linejoin:miter;stroke-opacity:1"
       d="m 459.7242,454.28959 c -0.0153,-0.0434 -0.22176,-0.64713 -0.45873,-1.34161 l -0.43084,-1.26269 0.42599,-4.9245 c 0.23429,-2.70847 0.42741,-4.9261 0.42914,-4.92808 0.002,-0.002 0.20012,0.0231 0.44085,0.0557 l 0.43769,0.0592 -0.12195,0.16531 c -0.11458,0.15532 -0.13338,0.49525 -0.31113,5.62645 -0.20939,6.04427 -0.23796,6.62912 -0.3239,6.62912 -0.0326,0 -0.0718,-0.0355 -0.0871,-0.0789 z"
       id="path4835"
       inkscape:connector-curvature="0"
       transform="scale(0.26458333)" />
    <path
       style="fill:#000000;fill-opacity:1;stroke:none;stroke-width:0.06313454px;stroke-linecap:butt;stroke-linejoin:miter;stroke-opacity:1"
       d="m 468.94896,440.61025 c -0.1332,-0.0878 -0.29786,-0.36512 -0.60891,-1.02552 l -0.42633,-0.90516 -0.65378,-0.0546 -0.65379,-0.0546 -0.66291,-1.47477 c -0.3646,-0.81112 -0.68052,-1.4755 -0.70203,-1.47641 -0.0289,-10e-4 -1.41654,1.85603 -2.09358,2.80215 -0.0492,0.0688 -0.15439,-0.034 -0.78251,-0.76391 l -0.28194,-0.32766 0.48584,-0.77719 c 0.26722,-0.42746 0.60304,-0.94018 0.74626,-1.13939 l 0.26041,-0.36219 1.13561,0.0149 1.13561,0.0149 1.36747,1.76777 c 1.12577,1.45533 1.38537,1.82914 1.46878,2.11501 0.0557,0.19098 0.19797,0.66686 0.31609,1.0575 0.11812,0.39065 0.1962,0.71008 0.17352,0.70985 -0.0227,-2.3e-4 -0.1234,-0.0546 -0.22381,-0.12078 z"
       id="path4837"
       inkscape:connector-curvature="0"
       transform="scale(0.26458333)" />
    <path
       style="fill:#000000;fill-opacity:1;stroke:none;stroke-width:0.06313454px;stroke-linecap:butt;stroke-linejoin:miter;stroke-opacity:1"
       d="m 457.33538,455.07877 c -0.0718,-0.11721 -6.60845,-21.62796 -6.58068,-21.65572 0.0172,-0.0172 1.38302,0.3477 3.03519,0.81085 l 3.00396,0.8421 1.63831,1.75879 1.63831,1.75879 -0.0968,0.18711 c -0.0532,0.10292 -0.11972,0.17293 -0.14777,0.15559 -0.0281,-0.0173 -0.5579,-0.6544 -1.17742,-1.41568 l -1.12641,-1.38416 -2.74034,-0.54797 c -1.50718,-0.30138 -2.74874,-0.53888 -2.75902,-0.52777 -0.0103,0.0111 1.27356,3.7846 2.85295,8.38553 l 2.87163,8.36533 -0.10403,1.29425 c -0.14271,1.77558 -0.17039,2.02031 -0.22849,2.02031 -0.0277,0 -0.0635,-0.0213 -0.0794,-0.0473 z"
       id="path4839"
       inkscape:connector-curvature="0"
       transform="scale(0.26458333)" />
    <path
       style="fill:#000000;fill-opacity:1;stroke:none;stroke-width:0.06313454px;stroke-linecap:butt;stroke-linejoin:miter;stroke-opacity:1"
       d="m 458.9409,460.38207 c -0.25077,-0.8247 -0.50152,-1.64751 -0.55721,-1.82847 -0.0949,-0.30833 -0.0919,-0.44242 0.0476,-2.13213 0.0978,-1.18461 0.17184,-1.79565 0.21595,-1.78139 0.0369,0.0119 0.30337,0.70149 0.59208,1.53235 l 0.52493,1.51064 -0.0363,1.29426 c -0.0693,2.47031 -0.10265,2.90418 -0.2235,2.90418 -0.0855,0 -0.20105,-0.30742 -0.56352,-1.49944 z"
       id="path4841"
       inkscape:connector-curvature="0"
       transform="scale(0.26458333)" />
    <path
       style="fill:#000000;fill-opacity:1;stroke:none;stroke-width:0.01578363px;stroke-linecap:butt;stroke-linejoin:miter;stroke-opacity:1"
       d="m 458.0936,461.72696 c -0.0738,-0.0132 -0.13501,-0.0247 -0.13604,-0.0255 -0.007,-0.005 0.0545,-0.6276 0.0629,-0.63596 0.006,-0.006 0.0169,-0.004 0.0247,0.004 0.0258,0.0268 0.21912,0.68561 0.20053,0.68342 -0.01,-0.001 -0.0783,-0.0129 -0.15211,-0.0262 z"
       id="path4843"
       inkscape:connector-curvature="0"
       transform="scale(0.26458333)" />
    <path
       style="fill:#000000;fill-opacity:1;stroke:none;stroke-width:0.01578363px;stroke-linecap:butt;stroke-linejoin:miter;stroke-opacity:1"
       d="m 460.97135,462.04108 c -0.15778,-0.014 -0.29162,-0.0302 -0.29743,-0.0361 -0.0109,-0.011 0.0379,-1.48334 0.0496,-1.49559 0.004,-0.004 0.013,-2.1e-4 0.021,0.008 0.0115,0.0117 0.53735,1.52646 0.53735,1.54797 0,0.003 -0.005,0.005 -0.0118,0.003 -0.007,-10e-4 -0.14093,-0.0136 -0.29871,-0.0276 z"
       id="path4845"
       inkscape:connector-curvature="0"
       transform="scale(0.26458333)" />
    <path
       style="fill:#000000;fill-opacity:1;stroke:none;stroke-width:0.01578363px;stroke-linecap:butt;stroke-linejoin:miter;stroke-opacity:1"
       d="m 460.78076,439.56809 c -0.0195,-0.004 -0.0355,-0.0107 -0.0355,-0.0154 0,-0.0168 0.0841,-0.16282 0.0938,-0.16282 0.005,0 0.052,0.0426 0.10354,0.0947 l 0.0937,0.0947 -0.10999,-0.002 c -0.0605,-10e-4 -0.12597,-0.005 -0.14551,-0.009 z"
       id="path4847"
       inkscape:connector-curvature="0"
       transform="scale(0.26458333)" />
    <path
       style="fill:url(#linearGradient4926);fill-opacity:1;stroke:none;stroke-width:0.12626907px;stroke-linecap:butt;stroke-linejoin:miter;stroke-opacity:1"
       d="m 470.94515,486.66445 c -0.55558,-0.34965 -1.45051,-0.85942 -1.98874,-1.13283 -0.53822,-0.2734 -0.97858,-0.53111 -0.97858,-0.57269 0,-0.0416 0.2934,-0.39607 0.65201,-0.78777 0.81349,-0.88857 1.3702,-2.04752 1.46018,-3.03977 l 0.0679,-0.74884 0.87455,-0.14751 c 1.03528,-0.17463 1.58948,-0.0925 2.4222,0.35897 l 0.61549,0.33368 -0.0657,1.13938 c -0.0457,0.79332 -0.16642,1.40781 -0.39738,2.02325 -0.18243,0.48614 -0.42033,1.12537 -0.52867,1.42053 -0.10834,0.29515 -0.24266,0.53664 -0.29848,0.53664 -0.0558,0 -0.42691,-0.39775 -0.82464,-0.88388 -0.39772,-0.48614 -0.7846,-0.88389 -0.85973,-0.88389 -0.0751,0 -0.29326,0.15009 -0.48473,0.33353 l -0.34812,0.33353 0.78316,0.93562 c 1.40824,1.68239 1.40236,1.72799 -0.10073,0.78205 z"
       id="path4910"
       inkscape:connector-curvature="0"
       transform="scale(0.26458333)" />
  </g>
</svg>
